%YAML 1.1
%TAG !u! tag:unity3d.com,2011:
--- !u!21 &2100000
Material:
  serializedVersion: 6
  m_ObjectHideFlags: 0
  m_CorrespondingSourceObject: {fileID: 0}
  m_PrefabInstance: {fileID: 0}
  m_PrefabAsset: {fileID: 0}
  m_Name: Custom_ClassicShieldHex
  m_Shader: {fileID: 4800000, guid: 80c85e059f9ac9b49949ec7f72c57175, type: 3}
  m_ShaderKeywords: 
  m_LightmapFlags: 4
  m_EnableInstancingVariants: 0
  m_DoubleSidedGI: 0
  m_CustomRenderQueue: -1
  stringTagMap: {}
  disabledShaderPasses: []
  m_SavedProperties:
    serializedVersion: 3
    m_TexEnvs:
    - _MainTex:
        m_Texture: {fileID: 2800000, guid: cd1f30746b164eb40ab60e4e7ec153c4, type: 3}
        m_Scale: {x: 1, y: 1}
        m_Offset: {x: 0, y: 0}
    m_Floats:
    - _Distort: 44.5
    - _Fresnel: 17.9
    - _FresnelWidth: 1.554
    - _IntersectionThreshold: 0.335
    - _ScrollSpeedU: 2
    - _ScrollSpeedV: 0
    m_Colors:
    - _MainColor: {r: 1, g: 0.30406782, b: 0, a: 1}
